module gitlab.com/cs-task-force/server

go 1.16

require (
	github.com/dgrijalva/jwt-go v3.2.0+incompatible
	github.com/gin-contrib/cors v1.3.1
	github.com/gin-gonic/gin v1.7.2
	github.com/go-playground/validator/v10 v10.6.1 // indirect
	github.com/golang/protobuf v1.5.2 // indirect
	github.com/joho/godotenv v1.3.0
	github.com/json-iterator/go v1.1.11 // indirect
	github.com/leodido/go-urn v1.2.1 // indirect
	github.com/mattn/go-sqlite3 v1.14.7 // indirect
	github.com/modern-go/concurrent v0.0.0-20180306012644-bacd9c7ef1dd // indirect
	github.com/modern-go/reflect2 v1.0.1 // indirect
	github.com/satori/go.uuid v1.2.0 // indirect
	github.com/ugorji/go v1.2.6 // indirect
	golang.org/x/crypto v0.0.0-20210513164829-c07d793c2f9a // indirect
	golang.org/x/sys v0.0.0-20210521203332-0cec03c779c1 // indirect
	golang.org/x/text v0.3.6 // indirect
	gopkg.in/yaml.v2 v2.4.0 // indirect
	gorm.io/driver/sqlite v1.1.4
	gorm.io/gorm v1.21.10
)
